Movies Shown in Danish Cinemas
…
## [1] 95

Most popular movies shown in Denmark

These are the most popular movies shown in Denmark. Sorted by number of tickets sold.

cinema_data %>% 
  filter(!is.na(`Antal solgte biografbilletter`)) %>% 
  group_by(`Dansk titel`, `Antal solgte biografbilletter`) %>% 
  summarise(min_tickets_sold = min(`Antal solgte biografbilletter`)) %>% 
  arrange(desc(min_tickets_sold))

## `summarise()` regrouping output by 'Dansk titel' (override with `.groups` argument)

## # A tibble: 12,201 x 3
## # Groups:   Dansk titel [12,188]
##    `Dansk titel`                    `Antal solgte biografbille… min_tickets_sold
##    <chr>                                                  <dbl>            <dbl>
##  1 TITANIC                                              1430182          1430182
##  2 RINGENES HERRE: EVENTYRET OM RI…                     1331669          1331669
##  3 OLSEN BANDEN SER RØDT (NR.8)                         1201293          1201293
##  4 RINGENES HERRE - KONGEN VENDER …                     1167677          1167677
##  5 AVATAR                                               1158592          1158592
##  6 RINGENES HERRE - DE TO TÅRNE                         1123412          1123412
##  7 GØGEREDEN                                            1119769          1119769
##  8 OLSEN BANDEN DERUDA' (NR.9)                          1044801          1044801
##  9 E.T.                                                 1018715          1018715
## 10 LØVERNES KONGE (SE 12271)                            1009411          1009411
## # … with 12,191 more rows

Which countries are the movies from?

Countries with the most movies shown in Danish cinemas.

Arranged by number of movies shown

cinema_data %>% 
  select(Nationalitet) %>% 
  count(Nationalitet) %>% 
  arrange(desc(n))

## # A tibble: 95 x 2
##    Nationalitet       n
##    <chr>          <int>
##  1 USA             5962
##  2 DANMARK         1471
##  3 STORBRITANNIEN   950
##  4 FRANKRIG         846
##  5 ITALIEN          626
##  6 TYSKLAND         395
##  7 HELT UOPLYST     322
##  8 SVERIGE          319
##  9 ASIEN UOPLYST    139
## 10 SPANIEN          134
## # … with 85 more rows
…
I created a new object with the seven countries which has sold the most tickets.

cinema_data_top_7 <- cinema_data %>% 
  filter(Nationalitet == "USA" | Nationalitet == "DANMARK" | Nationalitet == "STORBRITANNIEN" | Nationalitet == "FRANKRIG" | Nationalitet == "ITALIEN" | Nationalitet == "TYSKLAND" | Nationalitet == "SVERIGE") %>% 
  select(Nationalitet, `Antal solgte biografbilletter`, `premiere år`, `Original titel`)

cinema_data_top_7

## # A tibble: 10,569 x 4
##    Nationalitet `Antal solgte biograf… `premiere år` `Original titel`           
##    <chr>                         <dbl>         <dbl> <chr>                      
##  1 USA                         1430182          1998 "TITANIC"                  
##  2 USA                         1331669          2001 "THE LORD OF THE RINGS: TH…
##  3 DANMARK                     1201293          1976 ""                         
##  4 USA                         1167677          2003 "THE LORD OF THE RINGS: TH…
##  5 USA                         1158592          2009 "AVATAR"                   
##  6 USA                         1123412          2002 "THE LORD OF THE RINGS: TH…
##  7 USA                         1119769          1976 "ONE FLEW OVER THE CUCKOO'…
##  8 DANMARK                     1044801          1977 ""                         
##  9 USA                         1018715          1982 "E.T. - THE EXTRA TERRESTR…
## 10 USA                         1009411          1994 "THE LION KING (SE 12271)" 
## # … with 10,559 more rows
…
